Vignette for R Package simASD
…
In this vignette, we describe the use of the R package simASD for performing a simple two-stage adaptive signature design (ASD) based on simulated datasets. For the methodology discussions and more simulations, please refer to the manuscript by Gu Mi, titled Enhancement of the Adaptive Signature Design for Learning and Confirming in a Single Pivotal Trial.

Introduction

We use a simplified simulated “mega” dataset data.simASD with step-by-step instructions to illustrate the workflow of evaluating key parameters in an ASD. At the planning stage of any phase III trial, it is recommended that similar simulations be conducted to determine the best parameter specifications which will be prospectively documented in the protocol and/or statistical analysis plan.

Simulated Mega Dataset Structure

The mega dataset included in the simASD package is a subset of the mega dataset we used in the manuscript. We restrict to one scenario (as an example) where each dataset contains 700 subjects, three biomarkers, and the biomarker predictive effect is the strongest. The first several rows of the dataset is shown below:

library(simASD)
data("data.simASD")
data.simASD
#> # A tibble: 70,000 × 13
#>    dataset    id   trt y_duration y_censor          x1         x2
#>      <int> <int> <int>      <dbl>    <int>       <dbl>      <dbl>
#> 1        1   106     0  354.29719        1 0.899599404 0.97735845
#> 2        1   107     0  158.90708        1 0.456760335 0.04393528
#> 3        1   108     0  547.50000        0 0.519385568 0.96440694
#> 4        1   109     0  105.16786        0 0.367535667 0.42735902
#> 5        1   110     0  515.70014        1 0.860670575 0.24955496
#> 6        1   111     0  436.36863        1 0.615304428 0.79570363
#> 7        1   112     0   42.97622        1 0.830964513 0.02089942
#> 8        1   113     0  547.50000        0 0.008607889 0.62556202
#> 9        1   114     0  105.22516        1 0.893781197 0.39944945
#> 10       1   115     0  178.58614        1 0.250063785 0.43807726
#> # ... with 69,990 more rows, and 6 more variables: x3 <dbl>,
#> #   ME_30_flag <int>, ME_40_flag <int>, ME_50_flag <int>,
#> #   ME_60_flag <int>, ME_70_flag <int>
…
